{
  "project_info": {
    "project_number": "923874133359",
    "firebase_url": "https://acbt-f15ca-default-rtdb.firebaseio.com",
    "project_id": "acbt-f15ca",
    "storage_bucket": "acbt-f15ca.appspot.com"
  },
  "client": [
    {
      "client_info": {
        "mobilesdk_app_id": "1:923874133359:android:8ee9386f397be086b0d49a",
        "android_client_info": {
          "package_name": "com.example.automatedcontrolbiofloctank"
        }
      },
      "oauth_client": [
        {
          "client_id": "923874133359-hffm40p9o395lmvm0ufosj24tni4n67n.apps.googleusercontent.com",
          "client_type": 3
        }
      ],
      "api_key": [
        {
          "current_key": "AIzaSyBJw3JAevV1ce6OdnUcH81LtcH-iJGJF00"
        }
      ],
      "services": {
        "appinvite_service": {
          "other_platform_oauth_client": [
            {
              "client_id": "923874133359-hffm40p9o395lmvm0ufosj24tni4n67n.apps.googleusercontent.com",
              "client_type": 3
            }
          ]
        }
      }
    }
  ],
  "configuration_version": "1"
}